{
  "log" : {
    "version" : "1.2",
    "pages" : [ ],
    "entries" : [ {
      "startedDateTime" : "2023-04-28T18:42:31.553Z",
      "request" : {
        "method" : "GET",
        "url" : "https://restful-booker.herokuapp.com/booking",
        "httpVersion" : "",
        "cookies" : [ ],
        "headers" : [ {
          "name" : "Content-Type",
          "value" : "application/json"
        } ],
        "queryString" : [ ],
        "postData" : {
          "mimeType" : "application/json",
          "text" : "",
          "comment" : ""
        },
        "headersSize" : 0,
        "bodySize" : 0,
        "comment" : ""
      },
      "response" : {
        "status" : 200,
        "statusText" : "",
        "httpVersion" : "",
        "cookies" : [ ],
        "headers" : [ {
          "name" : "Server",
          "value" : "Cowboy"
        }, {
          "name" : "Etag",
          "value" : "W/\"eb13-+/gsy/nmfRGkNs4a/kF99VGJaDU\""
        }, {
          "name" : "Connection",
          "value" : "keep-alive"
        }, {
          "name" : "#status#",
          "value" : "HTTP/1.1 200 OK"
        }, {
          "name" : "Content-Length",
          "value" : "60179"
        }, {
          "name" : "Date",
          "value" : "Fri, 28 Apr 2023 18:42:30 GMT"
        }, {
          "name" : "X-Powered-By",
          "value" : "Express"
        }, {
          "name" : "Content-Type",
          "value" : "application/json; charset=utf-8"
        }, {
          "name" : "Via",
          "value" : "1.1 vegur"
        } ],
        "content" : {
          "size" : 60179,
          "mimeType" : "application/json; charset=utf-8",
          "text" : "[{\"bookingid\":964},{\"bookingid\":103},{\"bookingid\":3994},{\"bookingid\":106},{\"bookingid\":3360},{\"bookingid\":1685},{\"bookingid\":2457},{\"bookingid\":4425},{\"bookingid\":335},{\"bookingid\":4002},{\"bookingid\":3913},{\"bookingid\":3002},{\"bookingid\":3069},{\"bookingid\":1814},{\"bookingid\":1794},{\"bookingid\":1394},{\"bookingid\":4016},{\"bookingid\":213},{\"bookingid\":884},{\"bookingid\":4437},{\"bookingid\":1840},{\"bookingid\":4327},{\"bookingid\":4183},{\"bookingid\":2570},{\"bookingid\":675},{\"bookingid\":4056},{\"bookingid\":839},{\"bookingid\":4192},{\"bookingid\":3195},{\"bookingid\":4619},{\"bookingid\":1598},{\"bookingid\":3574},{\"bookingid\":284},{\"bookingid\":822},{\"bookingid\":1725},{\"bookingid\":1697},{\"bookingid\":787},{\"bookingid\":4389},{\"bookingid\":3854},{\"bookingid\":4421},{\"bookingid\":3778},{\"bookingid\":4285},{\"bookingid\":4575},{\"bookingid\":1185},{\"bookingid\":1509},{\"bookingid\":2919},{\"bookingid\":737},{\"bookingid\":799},{\"bookingid\":3274},{\"bookingid\":4525},{\"bookingid\":1881},{\"bookingid\":2538},{\"bookingid\":700},{\"bookingid\":4187},{\"bookingid\":4620},{\"bookingid\":4147},{\"bookingid\":1299},{\"bookingid\":703},{\"bookingid\":4585},{\"bookingid\":3431},{\"bookingid\":4549},{\"bookingid\":4329},{\"bookingid\":1890},{\"bookingid\":3614},{\"bookingid\":1923},{\"bookingid\":4303},{\"bookingid\":3676},{\"bookingid\":2773},{\"bookingid\":560},{\"bookingid\":138},{\"bookingid\":1871},{\"bookingid\":3961},{\"bookingid\":800},{\"bookingid\":3755},{\"bookingid\":1922},{\"bookingid\":4616},{\"bookingid\":1894},{\"bookingid\":1025},{\"bookingid\":2343},{\"bookingid\":2426},{\"bookingid\":4494},{\"bookingid\":4371},{\"bookingid\":3986},{\"bookingid\":965},{\"bookingid\":4065},{\"bookingid\":471},{\"bookingid\":2731},{\"bookingid\":2221},{\"bookingid\":1737},{\"bookingid\":4572},{\"bookingid\":889},{\"bookingid\":3515},{\"bookingid\":2959},{\"bookingid\":4199},{\"bookingid\":722},{\"bookingid\":397},{\"bookingid\":1986},{\"bookingid\":2875},{\"bookingid\":1439},{\"bookingid\":1516},{\"bookingid\":3674},{\"bookingid\":3436},{\"bookingid\":2830},{\"bookingid\":3220},{\"bookingid\":604},{\"bookingid\":3661},{\"bookingid\":4442},{\"bookingid\":2745},{\"bookingid\":3315},{\"bookingid\":1782},{\"bookingid\":1827},{\"bookingid\":2712},{\"bookingid\":1052},{\"bookingid\":661},{\"bookingid\":1048},{\"bookingid\":3942},{\"bookingid\":3693},{\"bookingid\":3265},{\"bookingid\":4190},{\"bookingid\":2351},{\"bookingid\":3662},{\"bookingid\":1348},{\"bookingid\":4115},{\"bookingid\":828},{\"bookingid\":1140},{\"bookingid\":275},{\"bookingid\":1530},{\"bookingid\":853},{\"bookingid\":3871},{\"bookingid\":584},{\"bookingid\":687},{\"bookingid\":2878},{\"bookingid\":2284},{\"bookingid\":1059},{\"bookingid\":3710},{\"bookingid\":4284},{\"bookingid\":2891},{\"bookingid\":4211},{\"bookingid\":1963},{\"bookingid\":2390},{\"bookingid\":4003},{\"bookingid\":613},{\"bookingid\":4013},{\"bookingid\":3701},{\"bookingid\":2847},{\"bookingid\":1311},{\"bookingid\":1397},{\"bookingid\":166},{\"bookingid\":3659},{\"bookingid\":3266},{\"bookingid\":4548},{\"bookingid\":1282},{\"bookingid\":655},{\"bookingid\":380},{\"bookingid\":1790},{\"bookingid\":4237},{\"bookingid\":1166},{\"bookingid\":2085},{\"bookingid\":2664},{\"bookingid\":2138},{\"bookingid\":2245},{\"bookingid\":1161},{\"bookingid\":619},{\"bookingid\":2259},{\"bookingid\":1436},{\"bookingid\":4176},{\"bookingid\":3076},{\"bookingid\":4129},{\"bookingid\":1232},{\"bookingid\":3381},{\"bookingid\":1770},{\"bookingid\":2560},{\"bookingid\":1613},{\"bookingid\":592},{\"bookingid\":4484},{\"bookingid\":3146},{\"bookingid\":968},{\"bookingid\":1076},{\"bookingid\":3358},{\"bookingid\":196},{\"bookingid\":18},{\"bookingid\":3435},{\"bookingid\":1307},{\"bookingid\":4496},{\"bookingid\":1674},{\"bookingid\":2586},{\"bookingid\":3243},{\"bookingid\":2479},{\"bookingid\":2079},{\"bookingid\":944},{\"bookingid\":841},{\"bookingid\":3635},{\"bookingid\":1551},{\"bookingid\":3382},{\"bookingid\":2521},{\"bookingid\":1844},{\"bookingid\":925},{\"bookingid\":4332},{\"bookingid\":1618},{\"bookingid\":3484},{\"bookingid\":1340},{\"bookingid\":333},{\"bookingid\":4210},{\"bookingid\":3184},{\"bookingid\":3080},{\"bookingid\":446},{\"bookingid\":2117},{\"bookingid\":1120},{\"bookingid\":1838},{\"bookingid\":4310},{\"bookingid\":485},{\"bookingid\":966},{\"bookingid\":2419},{\"bookingid\":2785},{\"bookingid\":1467},{\"bookingid\":2195},{\"bookingid\":2918},{\"bookingid\":4110},{\"bookingid\":3443},{\"bookingid\":1006},{\"bookingid\":4477},{\"bookingid\":3172},{\"bookingid\":417},{\"bookingid\":366},{\"bookingid\":4022},{\"bookingid\":3296},{\"bookingid\":25},{\"bookingid\":4167},{\"bookingid\":294},{\"bookingid\":252},{\"bookingid\":1457},{\"bookingid\":4621},{\"bookingid\":112},{\"bookingid\":4363},{\"bookingid\":363},{\"bookingid\":1886},{\"bookingid\":3865},{\"bookingid\":3759},{\"bookingid\":1229},{\"bookingid\":667},{\"bookingid\":2799},{\"bookingid\":2368},{\"bookingid\":946},{\"bookingid\":3609},{\"bookingid\":4214},{\"bookingid\":3864},{\"bookingid\":3654},{\"bookingid\":1800},{\"bookingid\":1462},{\"bookingid\":4465},{\"bookingid\":1688},{\"bookingid\":1427},{\"bookingid\":384},{\"bookingid\":3356},{\"bookingid\":3502},{\"bookingid\":3280},{\"bookingid\":690},{\"bookingid\":4479},{\"bookingid\":4290},{\"bookingid\":1276},{\"bookingid\":139},{\"bookingid\":2428},{\"bookingid\":198},{\"bookingid\":4213},{\"bookingid\":2186},{\"bookingid\":934},{\"bookingid\":3043},{\"bookingid\":3137},{\"bookingid\":1378},{\"bookingid\":2545},{\"bookingid\":206},{\"bookingid\":1628},{\"bookingid\":1285},{\"bookingid\":2141},{\"bookingid\":691},{\"bookingid\":2422},{\"bookingid\":2870},{\"bookingid\":3579},{\"bookingid\":852},{\"bookingid\":747},{\"bookingid\":4157},{\"bookingid\":2716},{\"bookingid\":209},{\"bookingid\":151},{\"bookingid\":4392},{\"bookingid\":246},{\"bookingid\":4019},{\"bookingid\":3474},{\"bookingid\":2902},{\"bookingid\":1546},{\"bookingid\":1929},{\"bookingid\":2996},{\"bookingid\":4457},{\"bookingid\":2648},{\"bookingid\":3031},{\"bookingid\":2784},{\"bookingid\":4174},{\"bookingid\":2000},{\"bookingid\":1560},{\"bookingid\":2070},{\"bookingid\":66},{\"bookingid\":1293},{\"bookingid\":2488},{\"bookingid\":2620},{\"bookingid\":2005},{\"bookingid\":2977},{\"bookingid\":4159},{\"bookingid\":3536},{\"bookingid\":2755},{\"bookingid\":3177},{\"bookingid\":4460},{\"bookingid\":3196},{\"bookingid\":1432},{\"bookingid\":4334},{\"bookingid\":2327},{\"bookingid\":3218},{\"bookingid\":1799},{\"bookingid\":1880},{\"bookingid\":4202},{\"bookingid\":41},{\"bookingid\":2060},{\"bookingid\":4495},{\"bookingid\":3197},{\"bookingid\":2581},{\"bookingid\":2749},{\"bookingid\":439},{\"bookingid\":2171},{\"bookingid\":668},{\"bookingid\":3879},{\"bookingid\":4353},{\"bookingid\":3682},{\"bookingid\":3619},{\"bookingid\":2504},{\"bookingid\":193},{\"bookingid\":349},{\"bookingid\":4094},{\"bookingid\":4126},{\"bookingid\":189},{\"bookingid\":2739},{\"bookingid\":3059},{\"bookingid\":1319},{\"bookingid\":1700},{\"bookingid\":4516},{\"bookingid\":1197},{\"bookingid\":429},{\"bookingid\":3957},{\"bookingid\":3268},{\"bookingid\":2059},{\"bookingid\":3789},{\"bookingid\":2369},{\"bookingid\":1931},{\"bookingid\":3467},{\"bookingid\":4001},{\"bookingid\":466},{\"bookingid\":358},{\"bookingid\":3899},{\"bookingid\":3663},{\"bookingid\":2650},{\"bookingid\":586},{\"bookingid\":2398},{\"bookingid\":2395},{\"bookingid\":4292},{\"bookingid\":561},{\"bookingid\":4399},{\"bookingid\":1877},{\"bookingid\":4194},{\"bookingid\":1243},{\"bookingid\":778},{\"bookingid\":539},{\"bookingid\":456},{\"bookingid\":978},{\"bookingid\":2365},{\"bookingid\":512},{\"bookingid\":3633},{\"bookingid\":3055},{\"bookingid\":1636},{\"bookingid\":4075},{\"bookingid\":1291},{\"bookingid\":1662},{\"bookingid\":1787},{\"bookingid\":1440},{\"bookingid\":537},{\"bookingid\":2920},{\"bookingid\":1370},{\"bookingid\":551},{\"bookingid\":249},{\"bookingid\":3916},{\"bookingid\":3448},{\"bookingid\":1447},{\"bookingid\":132},{\"bookingid\":3330},{\"bookingid\":1178},{\"bookingid\":411},{\"bookingid\":3269},{\"bookingid\":2946},{\"bookingid\":328},{\"bookingid\":2109},{\"bookingid\":2888},{\"bookingid\":3239},{\"bookingid\":955},{\"bookingid\":1734},{\"bookingid\":1199},{\"bookingid\":1012},{\"bookingid\":2256},{\"bookingid\":4413},{\"bookingid\":1342},{\"bookingid\":3314},{\"bookingid\":3616},{\"bookingid\":838},{\"bookingid\":728},{\"bookingid\":2285},{\"bookingid\":3834},{\"bookingid\":928},{\"bookingid\":3210},{\"bookingid\":2405},{\"bookingid\":415},{\"bookingid\":3955},{\"bookingid\":3066},{\"bookingid\":742},{\"bookingid\":2402},{\"bookingid\":3596},{\"bookingid\":1256},{\"bookingid\":3968},{\"bookingid\":1718},{\"bookingid\":3770},{\"bookingid\":3908},{\"bookingid\":2274},{\"bookingid\":894},{\"bookingid\":4576},{\"bookingid\":1962},{\"bookingid\":582},{\"bookingid\":1064},{\"bookingid\":2674},{\"bookingid\":1594},{\"bookingid\":1793},{\"bookingid\":3876},{\"bookingid\":2659},{\"bookingid\":4417},{\"bookingid\":896},{\"bookingid\":403},{\"bookingid\":1533},{\"bookingid\":1779},{\"bookingid\":763},{\"bookingid\":1297},{\"bookingid\":2720},{\"bookingid\":4508},{\"bookingid\":4293},{\"bookingid\":1400},{\"bookingid\":3777},{\"bookingid\":3729},{\"bookingid\":793},{\"bookingid\":2492},{\"bookingid\":2388},{\"bookingid\":4513},{\"bookingid\":421},{\"bookingid\":195},{\"bookingid\":686},{\"bookingid\":4382},{\"bookingid\":595},{\"bookingid\":933},{\"bookingid\":4296},{\"bookingid\":2033},{\"bookingid\":1445},{\"bookingid\":2172},{\"bookingid\":445},{\"bookingid\":78},{\"bookingid\":2281},{\"bookingid\":3007},{\"bookingid\":1194},{\"bookingid\":3800},{\"bookingid\":2665},{\"bookingid\":4262},{\"bookingid\":1571},{\"bookingid\":2765},{\"bookingid\":937},{\"bookingid\":156},{\"bookingid\":1287},{\"bookingid\":3773},{\"bookingid\":4037},{\"bookingid\":3442},{\"bookingid\":1567},{\"bookingid\":1175},{\"bookingid\":1658},{\"bookingid\":3966},{\"bookingid\":1351},{\"bookingid\":2414},{\"bookingid\":437},{\"bookingid\":4188},{\"bookingid\":3376},{\"bookingid\":1577},{\"bookingid\":376},{\"bookingid\":436},{\"bookingid\":2866},{\"bookingid\":774},{\"bookingid\":2337},{\"bookingid\":1544},{\"bookingid\":3691},{\"bookingid\":3993},{\"bookingid\":1622},{\"bookingid\":967},{\"bookingid\":1084},{\"bookingid\":2455},{\"bookingid\":2571},{\"bookingid\":3391},{\"bookingid\":3688},{\"bookingid\":28},{\"bookingid\":3566},{\"bookingid\":4428},{\"bookingid\":161},{\"bookingid\":3386},{\"bookingid\":1067},{\"bookingid\":4592},{\"bookingid\":1344},{\"bookingid\":4098},{\"bookingid\":3783},{\"bookingid\":3087},{\"bookingid\":2786},{\"bookingid\":1279},{\"bookingid\":2944},{\"bookingid\":2217},{\"bookingid\":4432},{\"bookingid\":1324},{\"bookingid\":3600},{\"bookingid\":4132},{\"bookingid\":3263},{\"bookingid\":2189},{\"bookingid\":265},{\"bookingid\":1830},{\"bookingid\":2984},{\"bookingid\":1172},{\"bookingid\":4580},{\"bookingid\":3169},{\"bookingid\":3805},{\"bookingid\":301},{\"bookingid\":1731},{\"bookingid\":2006},{\"bookingid\":2936},{\"bookingid\":326},{\"bookingid\":1078},{\"bookingid\":4227},{\"bookingid\":836},{\"bookingid\":1108},{\"bookingid\":3327},{\"bookingid\":3883},{\"bookingid\":684},{\"bookingid\":229},{\"bookingid\":4064},{\"bookingid\":1490},{\"bookingid\":1521},{\"bookingid\":35},{\"bookingid\":2242},{\"bookingid\":3427},{\"bookingid\":735},{\"bookingid\":3997},{\"bookingid\":234},{\"bookingid\":2326},{\"bookingid\":2994},{\"bookingid\":1087},{\"bookingid\":733},{\"bookingid\":369},{\"bookingid\":2024},{\"bookingid\":3765},{\"bookingid\":449},{\"bookingid\":3513},{\"bookingid\":830},{\"bookingid\":988},{\"bookingid\":713},{\"bookingid\":985},{\"bookingid\":1083},{\"bookingid\":331},{\"bookingid\":2549},{\"bookingid\":3024},{\"bookingid\":3485},{\"bookingid\":2890},{\"bookingid\":3963},{\"bookingid\":3192},{\"bookingid\":596},{\"bookingid\":2980},{\"bookingid\":2746},{\"bookingid\":3959},{\"bookingid\":4308},{\"bookingid\":95},{\"bookingid\":3322},{\"bookingid\":2283},{\"bookingid\":2877},{\"bookingid\":444},{\"bookingid\":880},{\"bookingid\":646},{\"bookingid\":3523},{\"bookingid\":549},{\"bookingid\":3919},{\"bookingid\":3508},{\"bookingid\":1920},{\"bookingid\":1477},{\"bookingid\":3371},{\"bookingid\":235},{\"bookingid\":336},{\"bookingid\":3252},{\"bookingid\":3909},{\"bookingid\":75},{\"bookingid\":9},{\"bookingid\":1875},{\"bookingid\":1728},{\"bookingid\":2895},{\"bookingid\":851},{\"bookingid\":2407},{\"bookingid\":2947},{\"bookingid\":20},{\"bookingid\":2498},{\"bookingid\":2389},{\"bookingid\":3302},{\"bookingid\":3416},{\"bookingid\":4420},{\"bookingid\":1754},{\"bookingid\":73},{\"bookingid\":621},{\"bookingid\":2769},{\"bookingid\":3860},{\"bookingid\":1173},{\"bookingid\":1212},{\"bookingid\":3345},{\"bookingid\":2677},{\"bookingid\":1959},{\"bookingid\":89},{\"bookingid\":2355},{\"bookingid\":3763},{\"bookingid\":2728},{\"bookingid\":1669},{\"bookingid\":874},{\"bookingid\":1921},{\"bookingid\":4470},{\"bookingid\":1011},{\"bookingid\":2322},{\"bookingid\":2175},{\"bookingid\":601},{\"bookingid\":974},{\"bookingid\":3753},{\"bookingid\":3587},{\"bookingid\":559},{\"bookingid\":2640},{\"bookingid\":2344},{\"bookingid\":2459},{\"bookingid\":3061},{\"bookingid\":2463},{\"bookingid\":2850},{\"bookingid\":4259},{\"bookingid\":2268},{\"bookingid\":3557},{\"bookingid\":1404},{\"bookingid\":2627},{\"bookingid\":911},{\"bookingid\":3737},{\"bookingid\":1714},{\"bookingid\":591},{\"bookingid\":1422},{\"bookingid\":4609},{\"bookingid\":3920},{\"bookingid\":2335},{\"bookingid\":283},{\"bookingid\":1663},{\"bookingid\":3128},{\"bookingid\":4104},{\"bookingid\":3281},{\"bookingid\":3109},{\"bookingid\":3945},{\"bookingid\":3114},{\"bookingid\":517},{\"bookingid\":3119},{\"bookingid\":805},{\"bookingid\":3846},{\"bookingid\":2374},{\"bookingid\":834},{\"bookingid\":2517},{\"bookingid\":2228},{\"bookingid\":4509},{\"bookingid\":3845},{\"bookingid\":2667},{\"bookingid\":55},{\"bookingid\":3756},{\"bookingid\":681},{\"bookingid\":3872},{\"bookingid\":4468},{\"bookingid\":1772},{\"bookingid\":931},{\"bookingid\":2201},{\"bookingid\":1473},{\"bookingid\":4074},{\"bookingid\":1482},{\"bookingid\":1865},{\"bookingid\":383},{\"bookingid\":1124},{\"bookingid\":3056},{\"bookingid\":1169},{\"bookingid\":3666},{\"bookingid\":2727},{\"bookingid\":2835},{\"bookingid\":3032},{\"bookingid\":4123},{\"bookingid\":4234},{\"bookingid\":3644},{\"bookingid\":4291},{\"bookingid\":4561},{\"bookingid\":2836},{\"bookingid\":1682},{\"bookingid\":4302},{\"bookingid\":2844},{\"bookingid\":525},{\"bookingid\":3223},{\"bookingid\":863},{\"bookingid\":3262},{\"bookingid\":2802},{\"bookingid\":4103},{\"bookingid\":3180},{\"bookingid\":1218},{\"bookingid\":4328},{\"bookingid\":2807},{\"bookingid\":1181},{\"bookingid\":1138},{\"bookingid\":1761},{\"bookingid\":1031},{\"bookingid\":67},{\"bookingid\":2577},{\"bookingid\":3215},{\"bookingid\":1004},{\"bookingid\":3},{\"bookingid\":3762},{\"bookingid\":869},{\"bookingid\":2438},{\"bookingid\":676},{\"bookingid\":1557},{\"bookingid\":858},{\"bookingid\":3078},{\"bookingid\":3123},{\"bookingid\":825},{\"bookingid\":2465},{\"bookingid\":1339},{\"bookingid\":2523},{\"bookingid\":4136},{\"bookingid\":2415},{\"bookingid\":164},{\"bookingid\":736},{\"bookingid\":2121},{\"bookingid\":3723},{\"bookingid\":1128},{\"bookingid\":3098},{\"bookingid\":772},{\"bookingid\":313},{\"bookingid\":2246},{\"bookingid\":2635},{\"bookingid\":1611},{\"bookingid\":3603},{\"bookingid\":3353},{\"bookingid\":3868},{\"bookingid\":3951},{\"bookingid\":1046},{\"bookingid\":3124},{\"bookingid\":3618},{\"bookingid\":883},{\"bookingid\":1411},{\"bookingid\":980},{\"bookingid\":2522},{\"bookingid\":4300},{\"bookingid\":1364},{\"bookingid\":3982},{\"bookingid\":368},{\"bookingid\":87},{\"bookingid\":2841},{\"bookingid\":2118},{\"bookingid\":3410},{\"bookingid\":2770},{\"bookingid\":3850},{\"bookingid\":1686},{\"bookingid\":4551},{\"bookingid\":3008},{\"bookingid\":146},{\"bookingid\":3367},{\"bookingid\":2366},{\"bookingid\":2280},{\"bookingid\":2142},{\"bookingid\":3537},{\"bookingid\":573},{\"bookingid\":1},{\"bookingid\":370},{\"bookingid\":824},{\"bookingid\":3140},{\"bookingid\":2056},{\"bookingid\":2579},{\"bookingid\":741},{\"bookingid\":2811},{\"bookingid\":4317},{\"bookingid\":2068},{\"bookingid\":3521},{\"bookingid\":2603},{\"bookingid\":614},{\"bookingid\":4333},{\"bookingid\":738},{\"bookingid\":4502},{\"bookingid\":493},{\"bookingid\":2305},{\"bookingid\":2628},{\"bookingid\":1038},{\"bookingid\":694},{\"bookingid\":1609},{\"bookingid\":814},{\"bookingid\":2669},{\"bookingid\":58},{\"bookingid\":3877},{\"bookingid\":4030},{\"bookingid\":1596},{\"bookingid\":2399},{\"bookingid\":2591},{\"bookingid\":2257},{\"bookingid\":2520},{\"bookingid\":1864},{\"bookingid\":1135},{\"bookingid\":3816},{\"bookingid\":256},{\"bookingid\":1230},{\"bookingid\":1264},{\"bookingid\":2722},{\"bookingid\":3895},{\"bookingid\":1484},{\"bookingid\":4246},{\"bookingid\":4535},{\"bookingid\":1027},{\"bookingid\":3089},{\"bookingid\":14},{\"bookingid\":186},{\"bookingid\":1312},{\"bookingid\":4534},{\"bookingid\":511},{\"bookingid\":3621},{\"bookingid\":2329},{\"bookingid\":2507},{\"bookingid\":277},{\"bookingid\":1712},{\"bookingid\":1109},{\"bookingid\":1403},{\"bookingid\":4178},{\"bookingid\":1954},{\"bookingid\":3297},{\"bookingid\":1825},{\"bookingid\":1558},{\"bookingid\":1235},{\"bookingid\":2772},{\"bookingid\":771},{\"bookingid\":4286},{\"bookingid\":371},{\"bookingid\":3462},{\"bookingid\":4067},{\"bookingid\":3534},{\"bookingid\":2286},{\"bookingid\":2689},{\"bookingid\":31},{\"bookingid\":2247},{\"bookingid\":664},{\"bookingid\":3950},{\"bookingid\":1584},{\"bookingid\":3840},{\"bookingid\":1991},{\"bookingid\":1417},{\"bookingid\":2623},{\"bookingid\":1368},{\"bookingid\":120},{\"bookingid\":3374},{\"bookingid\":3522},{\"bookingid\":3039},{\"bookingid\":3331},{\"bookingid\":4522},{\"bookingid\":788},{\"bookingid\":2038},{\"bookingid\":1099},{\"bookingid\":2427},{\"bookingid\":705},{\"bookingid\":1908},{\"bookingid\":797},{\"bookingid\":4480},{\"bookingid\":2975},{\"bookingid\":3275},{\"bookingid\":1353},{\"bookingid\":3018},{\"bookingid\":1982},{\"bookingid\":3766},{\"bookingid\":3825},{\"bookingid\":3217},{\"bookingid\":3926},{\"bookingid\":3370},{\"bookingid\":1343},{\"bookingid\":3129},{\"bookingid\":2647},{\"bookingid\":2165},{\"bookingid\":147},{\"bookingid\":789},{\"bookingid\":2271},{\"bookingid\":4027},{\"bookingid\":3706},{\"bookingid\":1122},{\"bookingid\":1309},{\"bookingid\":254},{\"bookingid\":3730},{\"bookingid\":4565},{\"bookingid\":1073},{\"bookingid\":1362},{\"bookingid\":48},{\"bookingid\":3247},{\"bookingid\":1545},{\"bookingid\":2788},{\"bookingid\":2845},{\"bookingid\":4338},{\"bookingid\":4331},{\"bookingid\":1664},{\"bookingid\":3304},{\"bookingid\":1591},{\"bookingid\":69},{\"bookingid\":2954},{\"bookingid\":2957},{\"bookingid\":2636},{\"bookingid\":4060},{\"bookingid\":3496},{\"bookingid\":396},{\"bookingid\":3684},{\"bookingid\":1111},{\"bookingid\":3446},{\"bookingid\":1077},{\"bookingid\":4359},{\"bookingid\":3718},{\"bookingid\":1586},{\"bookingid\":2385},{\"bookingid\":2384},{\"bookingid\":214},{\"bookingid\":996},{\"bookingid\":1176},{\"bookingid\":307},{\"bookingid\":291},{\"bookingid\":2044},{\"bookingid\":1704},{\"bookingid\":3074},{\"bookingid\":1157},{\"bookingid\":357},{\"bookingid\":108},{\"bookingid\":4282},{\"bookingid\":3392},{\"bookingid\":1204},{\"bookingid\":1983},{\"bookingid\":1446},{\"bookingid\":447},{\"bookingid\":4223},{\"bookingid\":1253},{\"bookingid\":3401},{\"bookingid\":3697},{\"bookingid\":3227},{\"bookingid\":4135},{\"bookingid\":2782},{\"bookingid\":1380},{\"bookingid\":1131},{\"bookingid\":3228},{\"bookingid\":3735},{\"bookingid\":972},{\"bookingid\":2206},{\"bookingid\":4091},{\"bookingid\":3117},{\"bookingid\":3887},{\"bookingid\":4523},{\"bookingid\":975},{\"bookingid\":1822},{\"bookingid\":4005},{\"bookingid\":3922},{\"bookingid\":495},{\"bookingid\":502},{\"bookingid\":2307},{\"bookingid\":208},{\"bookingid\":135},{\"bookingid\":203},{\"bookingid\":2864},{\"bookingid\":4374},{\"bookingid\":3120},{\"bookingid\":3209},{\"bookingid\":3152},{\"bookingid\":1747},{\"bookingid\":4440},{\"bookingid\":688},{\"bookingid\":1442},{\"bookingid\":387},{\"bookingid\":3397},{\"bookingid\":385},{\"bookingid\":207},{\"bookingid\":4171},{\"bookingid\":4198},{\"bookingid\":1149},{\"bookingid\":2593},{\"bookingid\":4127},{\"bookingid\":1296},{\"bookingid\":1130},{\"bookingid\":2352},{\"bookingid\":2569},{\"bookingid\":10},{\"bookingid\":2192},{\"bookingid\":2040},{\"bookingid\":4542},{\"bookingid\":4164},{\"bookingid\":1535},{\"bookingid\":451},{\"bookingid\":1776},{\"bookingid\":761},{\"bookingid\":3801},{\"bookingid\":4343},{\"bookingid\":4530},{\"bookingid\":806},{\"bookingid\":325},{\"bookingid\":2370},{\"bookingid\":2660},{\"bookingid\":4546},{\"bookingid\":2185},{\"bookingid\":4116},{\"bookingid\":599},{\"bookingid\":2972},{\"bookingid\":1418},{\"bookingid\":2999},{\"bookingid\":3440},{\"bookingid\":3847},{\"bookingid\":503},{\"bookingid\":936},{\"bookingid\":1902},{\"bookingid\":167},{\"bookingid\":3593},{\"bookingid\":3859},{\"bookingid\":2050},{\"bookingid\":38},{\"bookingid\":3967},{\"bookingid\":3190},{\"bookingid\":2055},{\"bookingid\":2161},{\"bookingid\":3097},{\"bookingid\":606},{\"bookingid\":1196},{\"bookingid\":3095},{\"bookingid\":438},{\"bookingid\":3365},{\"bookingid\":4008},{\"bookingid\":2547},{\"bookingid\":1043},{\"bookingid\":4212},{\"bookingid\":2046},{\"bookingid\":945},{\"bookingid\":2084},{\"bookingid\":2493},{\"bookingid\":1335},{\"bookingid\":1053},{\"bookingid\":2278},{\"bookingid\":2076},{\"bookingid\":1029},{\"bookingid\":3387},{\"bookingid\":2083},{\"bookingid\":2618},{\"bookingid\":3023},{\"bookingid\":2235},{\"bookingid\":2097},{\"bookingid\":1097},{\"bookingid\":3678},{\"bookingid\":4411},{\"bookingid\":4386},{\"bookingid\":4180},{\"bookingid\":4595},{\"bookingid\":3577},{\"bookingid\":2993},{\"bookingid\":890},{\"bookingid\":2559},{\"bookingid\":1049},{\"bookingid\":1976},{\"bookingid\":1132},{\"bookingid\":1424},{\"bookingid\":292},{\"bookingid\":1559},{\"bookingid\":2129},{\"bookingid\":3451},{\"bookingid\":1295},{\"bookingid\":1987},{\"bookingid\":1470},{\"bookingid\":1807},{\"bookingid\":2451},{\"bookingid\":81},{\"bookingid\":4344},{\"bookingid\":957},{\"bookingid\":2839},{\"bookingid\":1085},{\"bookingid\":3294},{\"bookingid\":1614},{\"bookingid\":1459},{\"bookingid\":4248},{\"bookingid\":2976},{\"bookingid\":500},{\"bookingid\":4545},{\"bookingid\":1356},{\"bookingid\":3809},{\"bookingid\":2244},{\"bookingid\":4245},{\"bookingid\":2099},{\"bookingid\":90},{\"bookingid\":2378},{\"bookingid\":1405},{\"bookingid\":2914},{\"bookingid\":777},{\"bookingid\":318},{\"bookingid\":4200},{\"bookingid\":1934},{\"bookingid\":3205},{\"bookingid\":2453},{\"bookingid\":4322},{\"bookingid\":3736},{\"bookingid\":3156},{\"bookingid\":1036},{\"bookingid\":3819},{\"bookingid\":603},{\"bookingid\":1580},{\"bookingid\":1329},{\"bookingid\":26},{\"bookingid\":2090},{\"bookingid\":1538},{\"bookingid\":1940},{\"bookingid\":1153},{\"bookingid\":1553},{\"bookingid\":1757},{\"bookingid\":1775},{\"bookingid\":516},{\"bookingid\":794},{\"bookingid\":861},{\"bookingid\":947},{\"bookingid\":3796},{\"bookingid\":1708},{\"bookingid\":3483},{\"bookingid\":767},{\"bookingid\":4250},{\"bookingid\":430},{\"bookingid\":2983},{\"bookingid\":556},{\"bookingid\":158},{\"bookingid\":1637},{\"bookingid\":418},{\"bookingid\":4077},{\"bookingid\":3524},{\"bookingid\":2738},{\"bookingid\":60},{\"bookingid\":3988},{\"bookingid\":1091},{\"bookingid\":315},{\"bookingid\":4236},{\"bookingid\":4593},{\"bookingid\":271},{\"bookingid\":2018},{\"bookingid\":269},{\"bookingid\":266},{\"bookingid\":1896},{\"bookingid\":1209},{\"bookingid\":2421},{\"bookingid\":4029},{\"bookingid\":812},{\"bookingid\":508},{\"bookingid\":23},{\"bookingid\":547},{\"bookingid\":413},{\"bookingid\":1564},{\"bookingid\":3130},{\"bookingid\":2990},{\"bookingid\":1795},{\"bookingid\":2047},{\"bookingid\":942},{\"bookingid\":2897},{\"bookingid\":200},{\"bookingid\":757},{\"bookingid\":2649},{\"bookingid\":4578},{\"bookingid\":3888},{\"bookingid\":2035},{\"bookingid\":79},{\"bookingid\":1382},{\"bookingid\":2952},{\"bookingid\":1117},{\"bookingid\":458},{\"bookingid\":2372},{\"bookingid\":1050},{\"bookingid\":238},{\"bookingid\":4336},{\"bookingid\":1539},{\"bookingid\":3366},{\"bookingid\":3498},{\"bookingid\":1009},{\"bookingid\":2678},{\"bookingid\":420},{\"bookingid\":216},{\"bookingid\":360},{\"bookingid\":4107},{\"bookingid\":1163},{\"bookingid\":1879},{\"bookingid\":373},{\"bookingid\":2691},{\"bookingid\":702},{\"bookingid\":4342},{\"bookingid\":4350},{\"bookingid\":2921},{\"bookingid\":4491},{\"bookingid\":272},{\"bookingid\":1005},{\"bookingid\":1826},{\"bookingid\":2086},{\"bookingid\":3554},{\"bookingid\":2886},{\"bookingid\":237},{\"bookingid\":1016},{\"bookingid\":3806},{\"bookingid\":1315},{\"bookingid\":3104},{\"bookingid\":4563},{\"bookingid\":3373},{\"bookingid\":3689},{\"bookingid\":1801},{\"bookingid\":1651},{\"bookingid\":753},{\"bookingid\":3224},{\"bookingid\":3150},{\"bookingid\":243},{\"bookingid\":4499},{\"bookingid\":3334},{\"bookingid\":1013},{\"bookingid\":2825},{\"bookingid\":2861},{\"bookingid\":2940},{\"bookingid\":1028},{\"bookingid\":3460},{\"bookingid\":2015},{\"bookingid\":2433},{\"bookingid\":4456},{\"bookingid\":1876},{\"bookingid\":2695},{\"bookingid\":4254},{\"bookingid\":2528},{\"bookingid\":1505},{\"bookingid\":4402},{\"bookingid\":4409},{\"bookingid\":412},{\"bookingid\":2066},{\"bookingid\":951},{\"bookingid\":3873},{\"bookingid\":17},{\"bookingid\":3891},{\"bookingid\":2132},{\"bookingid\":347},{\"bookingid\":4226},{\"bookingid\":1096},{\"bookingid\":3490},{\"bookingid\":1072},{\"bookingid\":1468},{\"bookingid\":2263},{\"bookingid\":2572},{\"bookingid\":3264},{\"bookingid\":1226},{\"bookingid\":2210},{\"bookingid\":627},{\"bookingid\":1812},{\"bookingid\":3071},{\"bookingid\":4424},{\"bookingid\":4298},{\"bookingid\":83},{\"bookingid\":1205},{\"bookingid\":1884},{\"bookingid\":2742},{\"bookingid\":1872},{\"bookingid\":422},{\"bookingid\":3027},{\"bookingid\":1603},{\"bookingid\":3084},{\"bookingid\":1317},{\"bookingid\":594},{\"bookingid\":473},{\"bookingid\":2152},{\"bookingid\":293},{\"bookingid\":2484},{\"bookingid\":4109},{\"bookingid\":2763},{\"bookingid\":469},{\"bookingid\":1974},{\"bookingid\":3529},{\"bookingid\":3807},{\"bookingid\":1973},{\"bookingid\":181},{\"bookingid\":4314},{\"bookingid\":2614},{\"bookingid\":2200},{\"bookingid\":3643},{\"bookingid\":4579},{\"bookingid\":2298},{\"bookingid\":2299},{\"bookingid\":3925},{\"bookingid\":3742},{\"bookingid\":2679},{\"bookingid\":334},{\"bookingid\":77},{\"bookingid\":2150},{\"bookingid\":2323},{\"bookingid\":813},{\"bookingid\":13},{\"bookingid\":1325},{\"bookingid\":1242},{\"bookingid\":3570},{\"bookingid\":1589},{\"bookingid\":4208},{\"bookingid\":648},{\"bookingid\":4618},{\"bookingid\":2330},{\"bookingid\":3219},{\"bookingid\":2222},{\"bookingid\":1425},{\"bookingid\":2694},{\"bookingid\":3015},{\"bookingid\":2340},{\"bookingid\":1090},{\"bookingid\":1554},{\"bookingid\":3185},{\"bookingid\":3282},{\"bookingid\":4238},{\"bookingid\":1263},{\"bookingid\":171},{\"bookingid\":1513},{\"bookingid\":3186},{\"bookingid\":1681},{\"bookingid\":1885},{\"bookingid\":3681},{\"bookingid\":3183},{\"bookingid\":287},{\"bookingid\":4602},{\"bookingid\":465},{\"bookingid\":1444},{\"bookingid\":1531},{\"bookingid\":3067},{\"bookingid\":3606},{\"bookingid\":866},{\"bookingid\":192},{\"bookingid\":1103},{\"bookingid\":699},{\"bookingid\":555},{\"bookingid\":2074},{\"bookingid\":470},{\"bookingid\":1608},{\"bookingid\":1823},{\"bookingid\":714},{\"bookingid\":489},{\"bookingid\":468},{\"bookingid\":3977},{\"bookingid\":3411},{\"bookingid\":2392},{\"bookingid\":1781},{\"bookingid\":3256},{\"bookingid\":2929},{\"bookingid\":24},{\"bookingid\":221},{\"bookingid\":1698},{\"bookingid\":3969},{\"bookingid\":1039},{\"bookingid\":1075},{\"bookingid\":901},{\"bookingid\":2499},{\"bookingid\":3542},{\"bookingid\":3049},{\"bookingid\":3858},{\"bookingid\":2794},{\"bookingid\":1174},{\"bookingid\":2930},{\"bookingid\":585},{\"bookingid\":4594},{\"bookingid\":390},{\"bookingid\":3998},{\"bookingid\":2020},{\"bookingid\":1939},{\"bookingid\":1384},{\"bookingid\":572},{\"bookingid\":2400},{\"bookingid\":2290},{\"bookingid\":3740},{\"bookingid\":8},{\"bookingid\":2058},{\"bookingid\":1510},{\"bookingid\":3413},{\"bookingid\":3624},{\"bookingid\":40},{\"bookingid\":1815},{\"bookingid\":2958},{\"bookingid\":3934},{\"bookingid\":574},{\"bookingid\":1857},{\"bookingid\":2783},{\"bookingid\":3512},{\"bookingid\":2892},{\"bookingid\":2529},{\"bookingid\":2817},{\"bookingid\":3479},{\"bookingid\":2949},{\"bookingid\":1041},{\"bookingid\":4100},{\"bookingid\":3145},{\"bookingid\":2375},{\"bookingid\":3648},{\"bookingid\":4403},{\"bookingid\":5},{\"bookingid\":872},{\"bookingid\":2469},{\"bookingid\":2764},{\"bookingid\":3962},{\"bookingid\":1515},{\"bookingid\":4228},{\"bookingid\":624},{\"bookingid\":1965},{\"bookingid\":124},{\"bookingid\":4397},{\"bookingid\":2236},{\"bookingid\":908},{\"bookingid\":3598},{\"bookingid\":1374},{\"bookingid\":3821},{\"bookingid\":3407},{\"bookingid\":182},{\"bookingid\":3612},{\"bookingid\":295},{\"bookingid\":4453},{\"bookingid\":4547},{\"bookingid\":1726},{\"bookingid\":1672},{\"bookingid\":3415},{\"bookingid\":2629},{\"bookingid\":3550},{\"bookingid\":3786},{\"bookingid\":3696},{\"bookingid\":4172},{\"bookingid\":2541},{\"bookingid\":2364},{\"bookingid\":3563},{\"bookingid\":3590},{\"bookingid\":3690},{\"bookingid\":3769},{\"bookingid\":1455},{\"bookingid\":2063},{\"bookingid\":3072},{\"bookingid\":1863},{\"bookingid\":1854},{\"bookingid\":3672},{\"bookingid\":3404},{\"bookingid\":220},{\"bookingid\":4358},{\"bookingid\":2973},{\"bookingid\":1514},{\"bookingid\":2904},{\"bookingid\":442},{\"bookingid\":929},{\"bookingid\":80},{\"bookingid\":2489},{\"bookingid\":3079},{\"bookingid\":2913},{\"bookingid\":3165},{\"bookingid\":2589},{\"bookingid\":3573},{\"bookingid\":4224},{\"bookingid\":2655},{\"bookingid\":92},{\"bookingid\":1428},{\"bookingid\":3525},{\"bookingid\":3939},{\"bookingid\":3991},{\"bookingid\":3006},{\"bookingid\":842},{\"bookingid\":1051},{\"bookingid\":4462},{\"bookingid\":2969},{\"bookingid\":250},{\"bookingid\":2873},{\"bookingid\":2846},{\"bookingid\":2358},{\"bookingid\":3531},{\"bookingid\":57},{\"bookingid\":1774},{\"bookingid\":791},{\"bookingid\":3890},{\"bookingid\":4414},{\"bookingid\":2098},{\"bookingid\":940},{\"bookingid\":1474},{\"bookingid\":1154},{\"bookingid\":815},{\"bookingid\":1098},{\"bookingid\":1936},{\"bookingid\":2064},{\"bookingid\":4222},{\"bookingid\":4398},{\"bookingid\":337},{\"bookingid\":583},{\"bookingid\":3650},{\"bookingid\":1753},{\"bookingid\":1236},{\"bookingid\":2601},{\"bookingid\":4225},{\"bookingid\":4475},{\"bookingid\":3749},{\"bookingid\":3709},{\"bookingid\":4600},{\"bookingid\":2126},{\"bookingid\":515},{\"bookingid\":2486},{\"bookingid\":2216},{\"bookingid\":1582},{\"bookingid\":4554},{\"bookingid\":1858},{\"bookingid\":2905},{\"bookingid\":4058},{\"bookingid\":3088},{\"bookingid\":3047},{\"bookingid\":3179},{\"bookingid\":3046},{\"bookingid\":1933},{\"bookingid\":2534},{\"bookingid\":4318},{\"bookingid\":2721},{\"bookingid\":752},{\"bookingid\":4028},{\"bookingid\":2135},{\"bookingid\":3727},{\"bookingid\":2361},{\"bookingid\":939},{\"bookingid\":2883},{\"bookingid\":1805},{\"bookingid\":819},{\"bookingid\":2444},{\"bookingid\":682},{\"bookingid\":1151},{\"bookingid\":2442},{\"bookingid\":990},{\"bookingid\":3233},{\"bookingid\":3231},{\"bookingid\":3010},{\"bookingid\":142},{\"bookingid\":2052},{\"bookingid\":4506},{\"bookingid\":1354},{\"bookingid\":2190},{\"bookingid\":984},{\"bookingid\":618},{\"bookingid\":4108},{\"bookingid\":2410},{\"bookingid\":97},{\"bookingid\":453},{\"bookingid\":4046},{\"bookingid\":1644},{\"bookingid\":2202},{\"bookingid\":3340},{\"bookingid\":2251},{\"bookingid\":43},{\"bookingid\":3785},{\"bookingid\":3107},{\"bookingid\":2815},{\"bookingid\":479},{\"bookingid\":2599},{\"bookingid\":2301},{\"bookingid\":2147},{\"bookingid\":674},{\"bookingid\":3251},{\"bookingid\":61},{\"bookingid\":2872},{\"bookingid\":3652},{\"bookingid\":1906},{\"bookingid\":1430},{\"bookingid\":4268},{\"bookingid\":3380},{\"bookingid\":2833},{\"bookingid\":2295},{\"bookingid\":1853},{\"bookingid\":2406},{\"bookingid\":1014},{\"bookingid\":2103},{\"bookingid\":2166},{\"bookingid\":3903},{\"bookingid\":1735},{\"bookingid\":3402},{\"bookingid\":2153},{\"bookingid\":3398},{\"bookingid\":887},{\"bookingid\":1026},{\"bookingid\":1008},{\"bookingid\":2230},{\"bookingid\":1992},{\"bookingid\":2203},{\"bookingid\":2548},{\"bookingid\":22},{\"bookingid\":1389},{\"bookingid\":4454},{\"bookingid\":2017},{\"bookingid\":983},{\"bookingid\":2639},{\"bookingid\":1347},{\"bookingid\":2612},{\"bookingid\":958},{\"bookingid\":1385},{\"bookingid\":3166},{\"bookingid\":3181},{\"bookingid\":654},{\"bookingid\":1957},{\"bookingid\":4587},{\"bookingid\":4134},{\"bookingid\":2821},{\"bookingid\":916},{\"bookingid\":2487},{\"bookingid\":3234},{\"bookingid\":2687},{\"bookingid\":4000},{\"bookingid\":2812},{\"bookingid\":2383},{\"bookingid\":3083},{\"bookingid\":766},{\"bookingid\":3482},{\"bookingid\":1536},{\"bookingid\":1526},{\"bookingid\":1143},{\"bookingid\":2450},{\"bookingid\":3627},{\"bookingid\":361},{\"bookingid\":1211},{\"bookingid\":259},{\"bookingid\":780},{\"bookingid\":4485},{\"bookingid\":809},{\"bookingid\":1657},{\"bookingid\":452},{\"bookingid\":3745},{\"bookingid\":2205},{\"bookingid\":2961},{\"bookingid\":3094},{\"bookingid\":1155},{\"bookingid\":2112},{\"bookingid\":3054},{\"bookingid\":341},{\"bookingid\":236},{\"bookingid\":3556},{\"bookingid\":2030},{\"bookingid\":565},{\"bookingid\":2708},{\"bookingid\":2334},{\"bookingid\":1450},{\"bookingid\":3771},{\"bookingid\":4441},{\"bookingid\":1743},{\"bookingid\":999},{\"bookingid\":3283},{\"bookingid\":4541},{\"bookingid\":2778},{\"bookingid\":163},{\"bookingid\":3488},{\"bookingid\":350},{\"bookingid\":3187},{\"bookingid\":1333},{\"bookingid\":2091},{\"bookingid\":671},{\"bookingid\":1275},{\"bookingid\":4486},{\"bookingid\":2733},{\"bookingid\":4206},{\"bookingid\":2048},{\"bookingid\":3026},{\"bookingid\":3538},{\"bookingid\":2854},{\"bookingid\":3680},{\"bookingid\":563},{\"bookingid\":4118},{\"bookingid\":4536},{\"bookingid\":1633},{\"bookingid\":3559},{\"bookingid\":400},{\"bookingid\":3912},{\"bookingid\":3439},{\"bookingid\":2},{\"bookingid\":4590},{\"bookingid\":642},{\"bookingid\":2828},{\"bookingid\":1760},{\"bookingid\":4047},{\"bookingid\":3560},{\"bookingid\":2625},{\"bookingid\":37},{\"bookingid\":288},{\"bookingid\":2219},{\"bookingid\":2943},{\"bookingid\":3851},{\"bookingid\":3553},{\"bookingid\":70},{\"bookingid\":2965},{\"bookingid\":3792},{\"bookingid\":455},{\"bookingid\":4520},{\"bookingid\":1742},{\"bookingid\":1113},{\"bookingid\":1190},{\"bookingid\":3575},{\"bookingid\":63},{\"bookingid\":4405},{\"bookingid\":3476},{\"bookingid\":886},{\"bookingid\":1543},{\"bookingid\":1483},{\"bookingid\":2598},{\"bookingid\":1250},{\"bookingid\":2131},{\"bookingid\":3823},{\"bookingid\":4325},{\"bookingid\":992},{\"bookingid\":2851},{\"bookingid\":2730},{\"bookingid\":1570},{\"bookingid\":3428},{\"bookingid\":3419},{\"bookingid\":3426},{\"bookingid\":2587},{\"bookingid\":2008},{\"bookingid\":1476},{\"bookingid\":903},{\"bookingid\":2552},{\"bookingid\":2303},{\"bookingid\":3132},{\"bookingid\":2527},{\"bookingid\":2610},{\"bookingid\":920},{\"bookingid\":311},{\"bookingid\":3989},{\"bookingid\":3352},{\"bookingid\":3248},{\"bookingid\":3433},{\"bookingid\":2137},{\"bookingid\":4120},{\"bookingid\":3106},{\"bookingid\":3506},{\"bookingid\":1261},{\"bookingid\":2262},{\"bookingid\":3790},{\"bookingid\":3225},{\"bookingid\":3530},{\"bookingid\":1809},{\"bookingid\":94},{\"bookingid\":4203},{\"bookingid\":2238},{\"bookingid\":960},{\"bookingid\":3050},{\"bookingid\":149},{\"bookingid\":1320},{\"bookingid\":2404},{\"bookingid\":1037},{\"bookingid\":1358},{\"bookingid\":2743},{\"bookingid\":647},{\"bookingid\":759},{\"bookingid\":870},{\"bookingid\":2637},{\"bookingid\":1266},{\"bookingid\":917},{\"bookingid\":4024},{\"bookingid\":4356},{\"bookingid\":2536},{\"bookingid\":1377},{\"bookingid\":2226},{\"bookingid\":3395},{\"bookingid\":1506},{\"bookingid\":7},{\"bookingid\":3339},{\"bookingid\":474},{\"bookingid\":2704},{\"bookingid\":3629},{\"bookingid\":2291},{\"bookingid\":2542},{\"bookingid\":1523},{\"bookingid\":2880},{\"bookingid\":1756},{\"bookingid\":875},{\"bookingid\":2177},{\"bookingid\":1763},{\"bookingid\":2857},{\"bookingid\":3820},{\"bookingid\":2411},{\"bookingid\":278},{\"bookingid\":4137},{\"bookingid\":4052},{\"bookingid\":638},{\"bookingid\":3459},{\"bookingid\":2832},{\"bookingid\":3703},{\"bookingid\":3637},{\"bookingid\":1322},{\"bookingid\":1719},{\"bookingid\":2110},{\"bookingid\":2348},{\"bookingid\":1481},{\"bookingid\":1247},{\"bookingid\":2709},{\"bookingid\":340},{\"bookingid\":4605},{\"bookingid\":2578},{\"bookingid\":2512},{\"bookingid\":2926},{\"bookingid\":1994},{\"bookingid\":3336},{\"bookingid\":2503},{\"bookingid\":536},{\"bookingid\":3657},{\"bookingid\":1106},{\"bookingid\":2710},{\"bookingid\":3831},{\"bookingid\":2292},{\"bookingid\":1223},{\"bookingid\":3011},{\"bookingid\":1219},{\"bookingid\":2646},{\"bookingid\":2473},{\"bookingid\":2178},{\"bookingid\":107},{\"bookingid\":1203},{\"bookingid\":4391},{\"bookingid\":1947},{\"bookingid\":1068},{\"bookingid\":2339},{\"bookingid\":2111},{\"bookingid\":4275},{\"bookingid\":2780},{\"bookingid\":2985},{\"bookingid\":2502},{\"bookingid\":3898},{\"bookingid\":2837},{\"bookingid\":2703},{\"bookingid\":567},{\"bookingid\":2740},{\"bookingid\":2011},{\"bookingid\":3836},{\"bookingid\":2906},{\"bookingid\":1471},{\"bookingid\":2508},{\"bookingid\":56},{\"bookingid\":211},{\"bookingid\":44},{\"bookingid\":3965},{\"bookingid\":3230},{\"bookingid\":4569},{\"bookingid\":4511},{\"bookingid\":3126},{\"bookingid\":4133},{\"bookingid\":3835},{\"bookingid\":4376},{\"bookingid\":3285},{\"bookingid\":191},{\"bookingid\":2698},{\"bookingid\":3478},{\"bookingid\":848},{\"bookingid\":1901},{\"bookingid\":4419},{\"bookingid\":1215},{\"bookingid\":3335},{\"bookingid\":3514},{\"bookingid\":4240},{\"bookingid\":59},{\"bookingid\":2022},{\"bookingid\":976},{\"bookingid\":1785},{\"bookingid\":4036},{\"bookingid\":3341},{\"bookingid\":215},{\"bookingid\":1852},{\"bookingid\":12},{\"bookingid\":319},{\"bookingid\":531},{\"bookingid\":176},{\"bookingid\":242},{\"bookingid\":554},{\"bookingid\":155},{\"bookingid\":3307},{\"bookingid\":2690},{\"bookingid\":47},{\"bookingid\":2668},{\"bookingid\":76},{\"bookingid\":4586},{\"bookingid\":506},{\"bookingid\":1093},{\"bookingid\":202},{\"bookingid\":3712},{\"bookingid\":2588},{\"bookingid\":4161},{\"bookingid\":1689},{\"bookingid\":2927},{\"bookingid\":1183},{\"bookingid\":2346},{\"bookingid\":3167},{\"bookingid\":1334},{\"bookingid\":2167},{\"bookingid\":1463},{\"bookingid\":372},{\"bookingid\":3533},{\"bookingid\":409},{\"bookingid\":1873},{\"bookingid\":2265},{\"bookingid\":2554},{\"bookingid\":1437},{\"bookingid\":258},{\"bookingid\":3400},{\"bookingid\":2080},{\"bookingid\":3528},{\"bookingid\":1692},{\"bookingid\":2432},{\"bookingid\":1387},{\"bookingid\":910},{\"bookingid\":2173},{\"bookingid\":4372},{\"bookingid\":1638},{\"bookingid\":1304},{\"bookingid\":956},{\"bookingid\":569},{\"bookingid\":2856},{\"bookingid\":1066},{\"bookingid\":228},{\"bookingid\":1412},{\"bookingid\":324},{\"bookingid\":3640},{\"bookingid\":2093},{\"bookingid\":1258},{\"bookingid\":4087},{\"bookingid\":3569},{\"bookingid\":3291},{\"bookingid\":765},{\"bookingid\":4249},{\"bookingid\":281},{\"bookingid\":1646},{\"bookingid\":4078},{\"bookingid\":1391},{\"bookingid\":3155},{\"bookingid\":2373},{\"bookingid\":4196},{\"bookingid\":472},{\"bookingid\":4186},{\"bookingid\":2574},{\"bookingid\":877},{\"bookingid\":3450},{\"bookingid\":2760},{\"bookingid\":2001},{\"bookingid\":918},{\"bookingid\":1832},{\"bookingid\":2903},{\"bookingid\":2596},{\"bookingid\":114},{\"bookingid\":1160},{\"bookingid\":3870},{\"bookingid\":1116},{\"bookingid\":829},{\"bookingid\":4601},{\"bookingid\":2501},{\"bookingid\":1330},{\"bookingid\":2483},{\"bookingid\":3464},{\"bookingid\":4461},{\"bookingid\":3293},{\"bookingid\":3471},{\"bookingid\":652},{\"bookingid\":4278},{\"bookingid\":663},{\"bookingid\":3127},{\"bookingid\":3171},{\"bookingid\":3362},{\"bookingid\":183},{\"bookingid\":1540},{\"bookingid\":1337},{\"bookingid\":3494},{\"bookingid\":1590},{\"bookingid\":3212},{\"bookingid\":4044},{\"bookingid\":4577},{\"bookingid\":4436},{\"bookingid\":4119},{\"bookingid\":64},{\"bookingid\":1102},{\"bookingid\":1191},{\"bookingid\":571},{\"bookingid\":3500},{\"bookingid\":602},{\"bookingid\":74},{\"bookingid\":3016},{\"bookingid\":6},{\"bookingid\":3491},{\"bookingid\":3193},{\"bookingid\":744},{\"bookingid\":2779},{\"bookingid\":899},{\"bookingid\":419},{\"bookingid\":496},{\"bookingid\":4241},{\"bookingid\":125},{\"bookingid\":4261},{\"bookingid\":3634},{\"bookingid\":1915},{\"bookingid\":1272},{\"bookingid\":3489},{\"bookingid\":833},{\"bookingid\":651},{\"bookingid\":4464},{\"bookingid\":2750},{\"bookingid\":811},{\"bookingid\":2688},{\"bookingid\":625},{\"bookingid\":2986},{\"bookingid\":3456},{\"bookingid\":1233},{\"bookingid\":3687},{\"bookingid\":2800},{\"bookingid\":2315},{\"bookingid\":2604},{\"bookingid\":4117},{\"bookingid\":4269},{\"bookingid\":1441},{\"bookingid\":1528},{\"bookingid\":2923},{\"bookingid\":1512},{\"bookingid\":3257},{\"bookingid\":2626},{\"bookingid\":270},{\"bookingid\":878},{\"bookingid\":2725},{\"bookingid\":1283},{\"bookingid\":1202},{\"bookingid\":317},{\"bookingid\":3216},{\"bookingid\":2539},{\"bookingid\":3726},{\"bookingid\":4283},{\"bookingid\":1018},{\"bookingid\":201},{\"bookingid\":1791},{\"bookingid\":3420},{\"bookingid\":1146},{\"bookingid\":2016},{\"bookingid\":2613},{\"bookingid\":4538},{\"bookingid\":2759},{\"bookingid\":1494},{\"bookingid\":1213},{\"bookingid\":3732},{\"bookingid\":3289},{\"bookingid\":4032},{\"bookingid\":3880},{\"bookingid\":4519},{\"bookingid\":1573},{\"bookingid\":2452},{\"bookingid\":2565},{\"bookingid\":4497},{\"bookingid\":1701},{\"bookingid\":2819},{\"bookingid\":3174},{\"bookingid\":2838},{\"bookingid\":2354},{\"bookingid\":1911},{\"bookingid\":3930},{\"bookingid\":2686},{\"bookingid\":2308},{\"bookingid\":4039},{\"bookingid\":3201},{\"bookingid\":129},{\"bookingid\":2935},{\"bookingid\":3028},{\"bookingid\":1752},{\"bookingid\":310},{\"bookingid\":542},{\"bookingid\":3070},{\"bookingid\":399},{\"bookingid\":3646},{\"bookingid\":1985},{\"bookingid\":3795},{\"bookingid\":720},{\"bookingid\":632},{\"bookingid\":3670},{\"bookingid\":4009},{\"bookingid\":4357},{\"bookingid\":1306},{\"bookingid\":3477},{\"bookingid\":2094},{\"bookingid\":2887},{\"bookingid\":630},{\"bookingid\":1519},{\"bookingid\":1984},{\"bookingid\":4315},{\"bookingid\":3953},{\"bookingid\":3133},{\"bookingid\":1225},{\"bookingid\":1641},{\"bookingid\":1000},{\"bookingid\":356},{\"bookingid\":1021},{\"bookingid\":1246},{\"bookingid\":3318},{\"bookingid\":4089},{\"bookingid\":21},{\"bookingid\":241},{\"bookingid\":2638},{\"bookingid\":2440},{\"bookingid\":4144},{\"bookingid\":2912},{\"bookingid\":2675},{\"bookingid\":963},{\"bookingid\":3115},{\"bookingid\":4082},{\"bookingid\":2249},{\"bookingid\":891},{\"bookingid\":4611},{\"bookingid\":2827},{\"bookingid\":4321},{\"bookingid\":4568},{\"bookingid\":4469},{\"bookingid\":3803},{\"bookingid\":1977},{\"bookingid\":2179},{\"bookingid\":2106},{\"bookingid\":2306},{\"bookingid\":2790},{\"bookingid\":3379},{\"bookingid\":1508},{\"bookingid\":2967},{\"bookingid\":2470},{\"bookingid\":3543},{\"bookingid\":3813},{\"bookingid\":3042},{\"bookingid\":2233},{\"bookingid\":4156},{\"bookingid\":1015},{\"bookingid\":3867},{\"bookingid\":2853},{\"bookingid\":300},{\"bookingid\":2869},{\"bookingid\":2475},{\"bookingid\":428},{\"bookingid\":3075},{\"bookingid\":1141},{\"bookingid\":2477},{\"bookingid\":2053},{\"bookingid\":2105},{\"bookingid\":4073},{\"bookingid\":912},{\"bookingid\":3086},{\"bookingid\":1547},{\"bookingid\":3799},{\"bookingid\":2148},{\"bookingid\":1806},{\"bookingid\":538},{\"bookingid\":1501},{\"bookingid\":4054},{\"bookingid\":528},{\"bookingid\":4385},{\"bookingid\":1755},{\"bookingid\":4069},{\"bookingid\":3638},{\"bookingid\":3940},{\"bookingid\":1711},{\"bookingid\":1503},{\"bookingid\":1907},{\"bookingid\":4181},{\"bookingid\":2995},{\"bookingid\":597},{\"bookingid\":3844},{\"bookingid\":3918},{\"bookingid\":730},{\"bookingid\":2814},{\"bookingid\":1489},{\"bookingid\":1332},{\"bookingid\":1997},{\"bookingid\":4384},{\"bookingid\":2680},{\"bookingid\":1942},{\"bookingid\":2684},{\"bookingid\":137},{\"bookingid\":1909},{\"bookingid\":2900},{\"bookingid\":2795},{\"bookingid\":2723},{\"bookingid\":2014},{\"bookingid\":1816},{\"bookingid\":72},{\"bookingid\":4476},{\"bookingid\":1843},{\"bookingid\":1691},{\"bookingid\":3105},{\"bookingid\":712},{\"bookingid\":1032},{\"bookingid\":3954},{\"bookingid\":544},{\"bookingid\":19},{\"bookingid\":4141},{\"bookingid\":3746},{\"bookingid\":4274},{\"bookingid\":615},{\"bookingid\":2867},{\"bookingid\":3719},{\"bookingid\":1706},{\"bookingid\":2476},{\"bookingid\":2075},{\"bookingid\":3541},{\"bookingid\":3507},{\"bookingid\":1926},{\"bookingid\":46},{\"bookingid\":36},{\"bookingid\":4471},{\"bookingid\":4215},{\"bookingid\":3469},{\"bookingid\":34},{\"bookingid\":2775},{\"bookingid\":2968},{\"bookingid\":783},{\"bookingid\":1376},{\"bookingid\":1629},{\"bookingid\":143},{\"bookingid\":1818},{\"bookingid\":102},{\"bookingid\":641},{\"bookingid\":850},{\"bookingid\":4177},{\"bookingid\":1841},{\"bookingid\":1480},{\"bookingid\":4012},{\"bookingid\":297},{\"bookingid\":706},{\"bookingid\":1948},{\"bookingid\":1739},{\"bookingid\":1081},{\"bookingid\":232},{\"bookingid\":1616},{\"bookingid\":2310},{\"bookingid\":115},{\"bookingid\":3237},{\"bookingid\":11},{\"bookingid\":1390},{\"bookingid\":3907},{\"bookingid\":1831},{\"bookingid\":1164},{\"bookingid\":2718},{\"bookingid\":4427},{\"bookingid\":1409},{\"bookingid\":1179},{\"bookingid\":710},{\"bookingid\":1824},{\"bookingid\":3843},{\"bookingid\":4599},{\"bookingid\":3188},{\"bookingid\":2248},{\"bookingid\":1402},{\"bookingid\":344},{\"bookingid\":3829},{\"bookingid\":3776},{\"bookingid\":1144},{\"bookingid\":3613},{\"bookingid\":3403},{\"bookingid\":463},{\"bookingid\":2241},{\"bookingid\":39},{\"bookingid\":3290},{\"bookingid\":3628},{\"bookingid\":4503},{\"bookingid\":3970},{\"bookingid\":2466},{\"bookingid\":2910},{\"bookingid\":51},{\"bookingid\":2676},{\"bookingid\":3935},{\"bookingid\":2360},{\"bookingid\":2435},{\"bookingid\":354},{\"bookingid\":1978},{\"bookingid\":4233},{\"bookingid\":1433},{\"bookingid\":3979},{\"bookingid\":1062},{\"bookingid\":1870},{\"bookingid\":2515},{\"bookingid\":2822},{\"bookingid\":1458},{\"bookingid\":2568},{\"bookingid\":3204},{\"bookingid\":3713},{\"bookingid\":857},{\"bookingid\":3457},{\"bookingid\":898},{\"bookingid\":346},{\"bookingid\":1966},{\"bookingid\":4277},{\"bookingid\":2123},{\"bookingid\":1278},{\"bookingid\":881},{\"bookingid\":1292},{\"bookingid\":1527},{\"bookingid\":2041},{\"bookingid\":1648},{\"bookingid\":3344},{\"bookingid\":3683},{\"bookingid\":2275},{\"bookingid\":2149},{\"bookingid\":490},{\"bookingid\":2139},{\"bookingid\":2611},{\"bookingid\":3728},{\"bookingid\":2224},{\"bookingid\":3377},{\"bookingid\":123},{\"bookingid\":1092},{\"bookingid\":2942},{\"bookingid\":1680},{\"bookingid\":1655},{\"bookingid\":1972},{\"bookingid\":3037},{\"bookingid\":1630},{\"bookingid\":3323},{\"bookingid\":1949},{\"bookingid\":1802},{\"bookingid\":1410},{\"bookingid\":3944},{\"bookingid\":1640},{\"bookingid\":4435},{\"bookingid\":2227},{\"bookingid\":2510},{\"bookingid\":3417},{\"bookingid\":2113},{\"bookingid\":2393},{\"bookingid\":746},{\"bookingid\":2699},{\"bookingid\":1500},{\"bookingid\":1525},{\"bookingid\":1465},{\"bookingid\":276},{\"bookingid\":248},{\"bookingid\":1914},{\"bookingid\":3385},{\"bookingid\":3162},{\"bookingid\":4166},{\"bookingid\":3103},{\"bookingid\":1944},{\"bookingid\":900},{\"bookingid\":1899},{\"bookingid\":1610},{\"bookingid\":2641},{\"bookingid\":1724},{\"bookingid\":3881},{\"bookingid\":488},{\"bookingid\":1234},{\"bookingid\":3980},{\"bookingid\":4267},{\"bookingid\":2316},{\"bookingid\":726},{\"bookingid\":1269},{\"bookingid\":4041},{\"bookingid\":2826},{\"bookingid\":379},{\"bookingid\":343},{\"bookingid\":718},{\"bookingid\":2496},{\"bookingid\":3837},{\"bookingid\":1666},{\"bookingid\":3060},{\"bookingid\":3784},{\"bookingid\":3009},{\"bookingid\":29},{\"bookingid\":4083},{\"bookingid\":3911},{\"bookingid\":3014},{\"bookingid\":2824},{\"bookingid\":3176},{\"bookingid\":4351},{\"bookingid\":521},{\"bookingid\":4258},{\"bookingid\":3229},{\"bookingid\":927},{\"bookingid\":2696},{\"bookingid\":2894},{\"bookingid\":3772},{\"bookingid\":131},{\"bookingid\":2376},{\"bookingid\":4526},{\"bookingid\":2239},{\"bookingid\":2036},{\"bookingid\":4591},{\"bookingid\":4369},{\"bookingid\":2162},{\"bookingid\":3752},{\"bookingid\":3313},{\"bookingid\":4152},{\"bookingid\":919},{\"bookingid\":1200},{\"bookingid\":1730},{\"bookingid\":263},{\"bookingid\":1867},{\"bookingid\":16},{\"bookingid\":3158},{\"bookingid\":3258},{\"bookingid\":1365},{\"bookingid\":685},{\"bookingid\":3053},{\"bookingid\":4106},{\"bookingid\":4068},{\"bookingid\":4614},{\"bookingid\":2043},{\"bookingid\":2026},{\"bookingid\":2752},{\"bookingid\":1328},{\"bookingid\":533},{\"bookingid\":3591},{\"bookingid\":393},{\"bookingid\":1305},{\"bookingid\":348},{\"bookingid\":4368},{\"bookingid\":3463},{\"bookingid\":696},{\"bookingid\":1740},{\"bookingid\":3519},{\"bookingid\":3601},{\"bookingid\":4149},{\"bookingid\":2443},{\"bookingid\":4059},{\"bookingid\":1310},{\"bookingid\":3019},{\"bookingid\":1241},{\"bookingid\":3292},{\"bookingid\":4251},{\"bookingid\":1900},{\"bookingid\":3620},{\"bookingid\":4537},{\"bookingid\":104},{\"bookingid\":1167},{\"bookingid\":1104},{\"bookingid\":3782},{\"bookingid\":740},{\"bookingid\":2816},{\"bookingid\":50},{\"bookingid\":715},{\"bookingid\":1749},{\"bookingid\":1710},{\"bookingid\":3665},{\"bookingid\":3447},{\"bookingid\":1778},{\"bookingid\":2287},{\"bookingid\":3348},{\"bookingid\":897},{\"bookingid\":2184},{\"bookingid\":4235},{\"bookingid\":4406},{\"bookingid\":796},{\"bookingid\":2458},{\"bookingid\":4114},{\"bookingid\":4288},{\"bookingid\":2881},{\"bookingid\":4366},{\"bookingid\":4169},{\"bookingid\":2028},{\"bookingid\":3599},{\"bookingid\":484},{\"bookingid\":1152},{\"bookingid\":2511},{\"bookingid\":4011},{\"bookingid\":1270},{\"bookingid\":2753},{\"bookingid\":1401},{\"bookingid\":576},{\"bookingid\":2656},{\"bookingid\":669},{\"bookingid\":520},{\"bookingid\":4444},{\"bookingid\":3761},{\"bookingid\":1668},{\"bookingid\":1289},{\"bookingid\":994},{\"bookingid\":2447},{\"bookingid\":2071},{\"bookingid\":3136},{\"bookingid\":3547},{\"bookingid\":217},{\"bookingid\":3583},{\"bookingid\":3034},{\"bookingid\":3309},{\"bookingid\":943},{\"bookingid\":187},{\"bookingid\":3975},{\"bookingid\":2169},{\"bookingid\":4527},{\"bookingid\":3461},{\"bookingid\":2429},{\"bookingid\":1817},{\"bookingid\":1268},{\"bookingid\":3647},{\"bookingid\":631},{\"bookingid\":998},{\"bookingid\":3194},{\"bookingid\":2651},{\"bookingid\":4426},{\"bookingid\":3021},{\"bookingid\":1366},{\"bookingid\":645},{\"bookingid\":545},{\"bookingid\":1968},{\"bookingid\":535},{\"bookingid\":3270},{\"bookingid\":118},{\"bookingid\":4162},{\"bookingid\":3828},{\"bookingid\":4048},{\"bookingid\":2140},{\"bookingid\":4482},{\"bookingid\":3802},{\"bookingid\":88},{\"bookingid\":303},{\"bookingid\":524},{\"bookingid\":2805},{\"bookingid\":1703},{\"bookingid\":2621},{\"bookingid\":3904},{\"bookingid\":1653},{\"bookingid\":4201},{\"bookingid\":678},{\"bookingid\":2095},{\"bookingid\":3466},{\"bookingid\":2413},{\"bookingid\":4264},{\"bookingid\":4295},{\"bookingid\":2276},{\"bookingid\":4408},{\"bookingid\":3699},{\"bookingid\":173},{\"bookingid\":2012},{\"bookingid\":2951},{\"bookingid\":2293},{\"bookingid\":986},{\"bookingid\":3141},{\"bookingid\":1556},{\"bookingid\":3110},{\"bookingid\":3409},{\"bookingid\":505},{\"bookingid\":3020},{\"bookingid\":152},{\"bookingid\":3855},{\"bookingid\":4490},{\"bookingid\":2198},{\"bookingid\":723},{\"bookingid\":4607},{\"bookingid\":3329},{\"bookingid\":365},{\"bookingid\":1115},{\"bookingid\":2702},{\"bookingid\":1960},{\"bookingid\":3509},{\"bookingid\":2183},{\"bookingid\":68},{\"bookingid\":1887},{\"bookingid\":3568},{\"bookingid\":3452},{\"bookingid\":2809},{\"bookingid\":673},{\"bookingid\":697},{\"bookingid\":3948},{\"bookingid\":2031},{\"bookingid\":160},{\"bookingid\":4560},{\"bookingid\":2156},{\"bookingid\":4450},{\"bookingid\":4307},{\"bookingid\":1605},{\"bookingid\":1860},{\"bookingid\":2513},{\"bookingid\":3705},{\"bookingid\":4324},{\"bookingid\":782},{\"bookingid\":1549},{\"bookingid\":49},{\"bookingid\":3985},{\"bookingid\":610},{\"bookingid\":2634},{\"bookingid\":1583},{\"bookingid\":3901},{\"bookingid\":2535},{\"bookingid\":2037},{\"bookingid\":2585},{\"bookingid\":3424},{\"bookingid\":1023},{\"bookingid\":4493},{\"bookingid\":4418},{\"bookingid\":4387},{\"bookingid\":3093},{\"bookingid\":904},{\"bookingid\":3062},{\"bookingid\":4061},{\"bookingid\":1398},{\"bookingid\":2331},{\"bookingid\":1623},{\"bookingid\":3324},{\"bookingid\":3748},{\"bookingid\":2434},{\"bookingid\":2338},{\"bookingid\":1667},{\"bookingid\":177},{\"bookingid\":1047},{\"bookingid\":4345},{\"bookingid\":3138},{\"bookingid\":3139},{\"bookingid\":826},{\"bookingid\":2204},{\"bookingid\":394},{\"bookingid\":3279},{\"bookingid\":2468},{\"bookingid\":3832},{\"bookingid\":1040},{\"bookingid\":1893},{\"bookingid\":329},{\"bookingid\":3956},{\"bookingid\":4381},{\"bookingid\":2215},{\"bookingid\":4165},{\"bookingid\":865},{\"bookingid\":1300},{\"bookingid\":1716},{\"bookingid\":924},{\"bookingid\":860},{\"bookingid\":922},{\"bookingid\":4612},{\"bookingid\":1837},{\"bookingid\":3455},{\"bookingid\":3326},{\"bookingid\":2590},{\"bookingid\":185},{\"bookingid\":144},{\"bookingid\":4539},{\"bookingid\":3794},{\"bookingid\":2460},{\"bookingid\":1767},{\"bookingid\":255},{\"bookingid\":1148},{\"bookingid\":1134},{\"bookingid\":3721},{\"bookingid\":388},{\"bookingid\":1355},{\"bookingid\":1769},{\"bookingid\":3984},{\"bookingid\":3236},{\"bookingid\":52},{\"bookingid\":308},{\"bookingid\":2146},{\"bookingid\":1707},{\"bookingid\":977},{\"bookingid\":304},{\"bookingid\":656},{\"bookingid\":1239},{\"bookingid\":3814},{\"bookingid\":4396},{\"bookingid\":253},{\"bookingid\":2530},{\"bookingid\":3246},{\"bookingid\":3254},{\"bookingid\":2938},{\"bookingid\":1449},{\"bookingid\":3589},{\"bookingid\":1643},{\"bookingid\":748},{\"bookingid\":1126},{\"bookingid\":2600},{\"bookingid\":1056},{\"bookingid\":126},{\"bookingid\":1290},{\"bookingid\":1722},{\"bookingid\":1069},{\"bookingid\":1336},{\"bookingid\":4111},{\"bookingid\":3276},{\"bookingid\":529},{\"bookingid\":821},{\"bookingid\":3720},{\"bookingid\":2345},{\"bookingid\":3207},{\"bookingid\":2966},{\"bookingid\":391},{\"bookingid\":3125},{\"bookingid\":1479},{\"bookingid\":1017},{\"bookingid\":3897},{\"bookingid\":1574},{\"bookingid\":1060},{\"bookingid\":3937},{\"bookingid\":1464},{\"bookingid\":2978},{\"bookingid\":2941},{\"bookingid\":629},{\"bookingid\":4273},{\"bookingid\":4252},{\"bookingid\":3441},{\"bookingid\":4606},{\"bookingid\":1694},{\"bookingid\":1251},{\"bookingid\":353},{\"bookingid\":3470},{\"bookingid\":204},{\"bookingid\":4446},{\"bookingid\":4038},{\"bookingid\":2445},{\"bookingid\":3625},{\"bookingid\":2214},{\"bookingid\":1561},{\"bookingid\":3361},{\"bookingid\":2673},{\"bookingid\":2481},{\"bookingid\":3235},{\"bookingid\":4451},{\"bookingid\":2608},{\"bookingid\":3303},{\"bookingid\":2706},{\"bookingid\":2264},{\"bookingid\":3671},{\"bookingid\":3992},{\"bookingid\":523},{\"bookingid\":1891},{\"bookingid\":1214},{\"bookingid\":427},{\"bookingid\":1371},{\"bookingid\":552},{\"bookingid\":3203},{\"bookingid\":1416},{\"bookingid\":2896},{\"bookingid\":709},{\"bookingid\":2250},{\"bookingid\":1624},{\"bookingid\":3357},{\"bookingid\":2657},{\"bookingid\":658},{\"bookingid\":1454},{\"bookingid\":2842},{\"bookingid\":2120},{\"bookingid\":1599},{\"bookingid\":194},{\"bookingid\":3159},{\"bookingid\":1392},{\"bookingid\":1588},{\"bookingid\":4447},{\"bookingid\":888},{\"bookingid\":1690},{\"bookingid\":2666},{\"bookingid\":1845},{\"bookingid\":116},{\"bookingid\":3116},{\"bookingid\":4031},{\"bookingid\":4092},{\"bookingid\":3779},{\"bookingid\":3238},{\"bookingid\":727},{\"bookingid\":3255},{\"bookingid\":3369},{\"bookingid\":1238},{\"bookingid\":3757},{\"bookingid\":1861},{\"bookingid\":3148},{\"bookingid\":1967},{\"bookingid\":1829},{\"bookingid\":1496},{\"bookingid\":3582},{\"bookingid\":441},{\"bookingid\":3111},{\"bookingid\":3900},{\"bookingid\":3199},{\"bookingid\":637},{\"bookingid\":2325},{\"bookingid\":1579},{\"bookingid\":1660},{\"bookingid\":1953},{\"bookingid\":915},{\"bookingid\":4243},{\"bookingid\":756},{\"bookingid\":3639},{\"bookingid\":3649},{\"bookingid\":3422},{\"bookingid\":3418},{\"bookingid\":970},{\"bookingid\":750},{\"bookingid\":3393},{\"bookingid\":3272},{\"bookingid\":4140},{\"bookingid\":2495},{\"bookingid\":2713},{\"bookingid\":2964},{\"bookingid\":4570},{\"bookingid\":4383},{\"bookingid\":1421},{\"bookingid\":731},{\"bookingid\":3751},{\"bookingid\":4429},{\"bookingid\":4364},{\"bookingid\":636},{\"bookingid\":2158},{\"bookingid\":2934},{\"bookingid\":4154},{\"bookingid\":4608},{\"bookingid\":3915},{\"bookingid\":2609},{\"bookingid\":4143},{\"bookingid\":3099},{\"bookingid\":2272},{\"bookingid\":588},{\"bookingid\":1748},{\"bookingid\":1491},{\"bookingid\":2101},{\"bookingid\":3389},{\"bookingid\":801},{\"bookingid\":231},{\"bookingid\":2561},{\"bookingid\":3355},{\"bookingid\":3425},{\"bookingid\":2806},{\"bookingid\":758},{\"bookingid\":3048},{\"bookingid\":4053},{\"bookingid\":1786},{\"bookingid\":779},{\"bookingid\":2898},{\"bookingid\":2009},{\"bookingid\":65},{\"bookingid\":459},{\"bookingid\":1257},{\"bookingid\":847},{\"bookingid\":1821},{\"bookingid\":170},{\"bookingid\":3153},{\"bookingid\":2736},{\"bookingid\":3520},{\"bookingid\":3173},{\"bookingid\":2180},{\"bookingid\":3497},{\"bookingid\":4070},{\"bookingid\":1677},{\"bookingid\":426},{\"bookingid\":4042},{\"bookingid\":1733},{\"bookingid\":247},{\"bookingid\":1488},{\"bookingid\":1744},{\"bookingid\":708},{\"bookingid\":1431},{\"bookingid\":2209},{\"bookingid\":3791},{\"bookingid\":4151},{\"bookingid\":1244},{\"bookingid\":1810},{\"bookingid\":244},{\"bookingid\":2909},{\"bookingid\":2320},{\"bookingid\":666},{\"bookingid\":2516},{\"bookingid\":844},{\"bookingid\":2602},{\"bookingid\":2420},{\"bookingid\":2518},{\"bookingid\":481},{\"bookingid\":3717},{\"bookingid\":4023},{\"bookingid\":1998},{\"bookingid\":2860},{\"bookingid\":1927},{\"bookingid\":157},{\"bookingid\":764},{\"bookingid\":3149},{\"bookingid\":2087},{\"bookingid\":3549},{\"bookingid\":1274},{\"bookingid\":2981},{\"bookingid\":3656},{\"bookingid\":4220},{\"bookingid\":4189},{\"bookingid\":3548},{\"bookingid\":507},{\"bookingid\":404},{\"bookingid\":3673},{\"bookingid\":2544},{\"bookingid\":1188},{\"bookingid\":952},{\"bookingid\":4260},{\"bookingid\":3527},{\"bookingid\":4448},{\"bookingid\":3743},{\"bookingid\":127},{\"bookingid\":1612},{\"bookingid\":1993},{\"bookingid\":3278},{\"bookingid\":408},{\"bookingid\":2057},{\"bookingid\":3408},{\"bookingid\":926},{\"bookingid\":121},{\"bookingid\":1970},{\"bookingid\":4339},{\"bookingid\":3707},{\"bookingid\":362},{\"bookingid\":2104},{\"bookingid\":3923},{\"bookingid\":4095},{\"bookingid\":4197},{\"bookingid\":134},{\"bookingid\":2317},{\"bookingid\":3841},{\"bookingid\":2436},{\"bookingid\":4320},{\"bookingid\":526},{\"bookingid\":2991},{\"bookingid\":1118},{\"bookingid\":1593},{\"bookingid\":2580},{\"bookingid\":1647},{\"bookingid\":2232},{\"bookingid\":4532},{\"bookingid\":3164},{\"bookingid\":612},{\"bookingid\":2269},{\"bookingid\":961},{\"bookingid\":1602},{\"bookingid\":2956},{\"bookingid\":4099},{\"bookingid\":2472},{\"bookingid\":1224},{\"bookingid\":4085},{\"bookingid\":693},{\"bookingid\":1286},{\"bookingid\":1259},{\"bookingid\":174},{\"bookingid\":3933},{\"bookingid\":1869},{\"bookingid\":3815},{\"bookingid\":53},{\"bookingid\":2319},{\"bookingid\":4515},{\"bookingid\":2624},{\"bookingid\":4567},{\"bookingid\":2803},{\"bookingid\":2159},{\"bookingid\":4459},{\"bookingid\":4492},{\"bookingid\":3658},{\"bookingid\":1649},{\"bookingid\":1323},{\"bookingid\":2380},{\"bookingid\":1208},{\"bookingid\":42},{\"bookingid\":492},{\"bookingid\":1502},{\"bookingid\":3592},{\"bookingid\":3886},{\"bookingid\":2726},{\"bookingid\":1930},{\"bookingid\":285},{\"bookingid\":1937},{\"bookingid\":1916},{\"bookingid\":1298},{\"bookingid\":478},{\"bookingid\":1415},{\"bookingid\":85},{\"bookingid\":4489},{\"bookingid\":302},{\"bookingid\":4375},{\"bookingid\":4556},{\"bookingid\":15},{\"bookingid\":4505},{\"bookingid\":1248},{\"bookingid\":2932},{\"bookingid\":1360},{\"bookingid\":1956},{\"bookingid\":1600},{\"bookingid\":2848},{\"bookingid\":4270},{\"bookingid\":855},{\"bookingid\":1746},{\"bookingid\":4313},{\"bookingid\":4562},{\"bookingid\":993},{\"bookingid\":4146},{\"bookingid\":96},{\"bookingid\":1575},{\"bookingid\":1846},{\"bookingid\":1833},{\"bookingid\":1350},{\"bookingid\":3894},{\"bookingid\":3301},{\"bookingid\":3346},{\"bookingid\":136},{\"bookingid\":1768},{\"bookingid\":4006},{\"bookingid\":433},{\"bookingid\":2776},{\"bookingid\":222},{\"bookingid\":460},{\"bookingid\":1621},{\"bookingid\":402},{\"bookingid\":1119},{\"bookingid\":3495},{\"bookingid\":514},{\"bookingid\":3364},{\"bookingid\":4379},{\"bookingid\":227},{\"bookingid\":3349},{\"bookingid\":1369},{\"bookingid\":1773},{\"bookingid\":4221},{\"bookingid\":1839},{\"bookingid\":609},{\"bookingid\":4128},{\"bookingid\":487},{\"bookingid\":1281},{\"bookingid\":32},{\"bookingid\":818},{\"bookingid\":773},{\"bookingid\":3630},{\"bookingid\":2584},{\"bookingid\":2403},{\"bookingid\":3101},{\"bookingid\":4150},{\"bookingid\":3882},{\"bookingid\":4007},{\"bookingid\":4179},{\"bookingid\":2562},{\"bookingid\":2311},{\"bookingid\":2302},{\"bookingid\":790},{\"bookingid\":2767},{\"bookingid\":3562},{\"bookingid\":1917},{\"bookingid\":3739},{\"bookingid\":3853},{\"bookingid\":4507},{\"bookingid\":546},{\"bookingid\":798},{\"bookingid\":2533},{\"bookingid\":1999},{\"bookingid\":3669},{\"bookingid\":1497},{\"bookingid\":1129},{\"bookingid\":751},{\"bookingid\":1851},{\"bookingid\":3319},{\"bookingid\":677},{\"bookingid\":2187},{\"bookingid\":2916},{\"bookingid\":461},{\"bookingid\":2792},{\"bookingid\":3906},{\"bookingid\":264},{\"bookingid\":3564},{\"bookingid\":178},{\"bookingid\":3499},{\"bookingid\":1110},{\"bookingid\":279},{\"bookingid\":3161},{\"bookingid\":2658},{\"bookingid\":2557},{\"bookingid\":2062},{\"bookingid\":2758},{\"bookingid\":4017},{\"bookingid\":2157},{\"bookingid\":3432},{\"bookingid\":1061},{\"bookingid\":566},{\"bookingid\":997},{\"bookingid\":2002},{\"bookingid\":3604},{\"bookingid\":91},{\"bookingid\":1495},{\"bookingid\":2397},{\"bookingid\":581},{\"bookingid\":4412},{\"bookingid\":3004},{\"bookingid\":659},{\"bookingid\":3211},{\"bookingid\":3581},{\"bookingid\":622},{\"bookingid\":3964},{\"bookingid\":3306},{\"bookingid\":4438},{\"bookingid\":3929},{\"bookingid\":1784},{\"bookingid\":2130},{\"bookingid\":4557},{\"bookingid\":3949},{\"bookingid\":2027},{\"bookingid\":154},{\"bookingid\":2258},{\"bookingid\":4352},{\"bookingid\":1192},{\"bookingid\":1254},{\"bookingid\":2127},{\"bookingid\":3826},{\"bookingid\":1679},{\"bookingid\":4097},{\"bookingid\":148},{\"bookingid\":987},{\"bookingid\":111},{\"bookingid\":785},{\"bookingid\":2081},{\"bookingid\":4555},{\"bookingid\":1943},{\"bookingid\":2314},{\"bookingid\":3544},{\"bookingid\":401},{\"bookingid\":4},{\"bookingid\":3927},{\"bookingid\":3974},{\"bookingid\":1170},{\"bookingid\":1950},{\"bookingid\":3064},{\"bookingid\":4086},{\"bookingid\":2796},{\"bookingid\":1184},{\"bookingid\":1650},{\"bookingid\":1904},{\"bookingid\":3943},{\"bookingid\":4309},{\"bookingid\":2356},{\"bookingid\":2294},{\"bookingid\":3607},{\"bookingid\":4378},{\"bookingid\":1975},{\"bookingid\":1632},{\"bookingid\":1524},{\"bookingid\":3518},{\"bookingid\":4347},{\"bookingid\":1764},{\"bookingid\":3038},{\"bookingid\":3889},{\"bookingid\":4219},{\"bookingid\":2073},{\"bookingid\":1542},{\"bookingid\":745},{\"bookingid\":475},{\"bookingid\":2357},{\"bookingid\":4517},{\"bookingid\":843},{\"bookingid\":45},{\"bookingid\":4584},{\"bookingid\":2619},{\"bookingid\":2734},{\"bookingid\":2756},{\"bookingid\":2550},{\"bookingid\":1220},{\"bookingid\":3244},{\"bookingid\":2863},{\"bookingid\":954},{\"bookingid\":431},{\"bookingid\":2893},{\"bookingid\":381},{\"bookingid\":3610},{\"bookingid\":2197},{\"bookingid\":1792},{\"bookingid\":3305},{\"bookingid\":868},{\"bookingid\":3861},{\"bookingid\":2350},{\"bookingid\":4433},{\"bookingid\":3316},{\"bookingid\":635},{\"bookingid\":4531},{\"bookingid\":1892},{\"bookingid\":54},{\"bookingid\":1765},{\"bookingid\":578},{\"bookingid\":2715},{\"bookingid\":169},{\"bookingid\":628},{\"bookingid\":320},{\"bookingid\":1383},{\"bookingid\":4472},{\"bookingid\":1082},{\"bookingid\":3585},{\"bookingid\":577},{\"bookingid\":2122},{\"bookingid\":2566},{\"bookingid\":219},{\"bookingid\":2555},{\"bookingid\":2933},{\"bookingid\":3001},{\"bookingid\":316},{\"bookingid\":1675},{\"bookingid\":2359},{\"bookingid\":1626},{\"bookingid\":3338},{\"bookingid\":3030},{\"bookingid\":807},{\"bookingid\":4020},{\"bookingid\":2313},{\"bookingid\":3091},{\"bookingid\":3704},{\"bookingid\":3572},{\"bookingid\":3036},{\"bookingid\":499},{\"bookingid\":907},{\"bookingid\":4076},{\"bookingid\":2194},{\"bookingid\":695},{\"bookingid\":1448},{\"bookingid\":1836},{\"bookingid\":84},{\"bookingid\":2859},{\"bookingid\":4304},{\"bookingid\":2423},{\"bookingid\":4362},{\"bookingid\":2882},{\"bookingid\":3695},{\"bookingid\":4445},{\"bookingid\":4276},{\"bookingid\":3580},{\"bookingid\":4050},{\"bookingid\":1565},{\"bookingid\":4487},{\"bookingid\":3347},{\"bookingid\":1221},{\"bookingid\":721},{\"bookingid\":1709}]",
          "comment" : ""
        },
        "redirectURL" : "",
        "headersSize" : 198,
        "bodySize" : 60179,
        "comment" : ""
      },
      "cache" : { },
      "timings" : {
        "comment" : "",
        "ssl" : -1,
        "connect" : 0,
        "receive" : 0,
        "dns" : -1,
        "wait" : 0,
        "blocked" : -1,
        "send" : 0
      },
      "comment" : "",
      "_katalonRequestInformation" : {
        "name" : "2",
        "testObjectId" : "Object Repository/GET - GetBookingIds",
        "harId" : "dddebd9c-5e64-426c-82c7-77ad57f4dde0",
        "reportFolder" : null
      },
      "time" : 0
    } ],
    "comment" : ""
  }
}