{
  "log" : {
    "version" : "1.2",
    "pages" : [ ],
    "entries" : [ {
      "startedDateTime" : "2023-04-28T18:40:35.111Z",
      "request" : {
        "method" : "POST",
        "url" : "https://restful-booker.herokuapp.com/auth",
        "httpVersion" : "",
        "cookies" : [ ],
        "headers" : [ {
          "name" : "Content-Type",
          "value" : "application/json"
        } ],
        "queryString" : [ ],
        "postData" : {
          "mimeType" : "application/json",
          "text" : "{\n    \"username\" : \"admin\",\n    \"password\" : \"password123\"\n}",
          "comment" : ""
        },
        "headersSize" : 0,
        "bodySize" : 0,
        "comment" : ""
      },
      "response" : {
        "status" : 200,
        "statusText" : "",
        "httpVersion" : "",
        "cookies" : [ ],
        "headers" : [ {
          "name" : "Server",
          "value" : "Cowboy"
        }, {
          "name" : "Etag",
          "value" : "W/\"1b-nu8HEz1MeAe9SpCtk6+lniu8M5U\""
        }, {
          "name" : "Connection",
          "value" : "keep-alive"
        }, {
          "name" : "#status#",
          "value" : "HTTP/1.1 200 OK"
        }, {
          "name" : "Content-Length",
          "value" : "27"
        }, {
          "name" : "Date",
          "value" : "Fri, 28 Apr 2023 18:40:34 GMT"
        }, {
          "name" : "X-Powered-By",
          "value" : "Express"
        }, {
          "name" : "Content-Type",
          "value" : "application/json; charset=utf-8"
        }, {
          "name" : "Via",
          "value" : "1.1 vegur"
        } ],
        "content" : {
          "size" : 27,
          "mimeType" : "application/json; charset=utf-8",
          "text" : "{\"token\":\"1df8580e85c5de0\"}",
          "comment" : ""
        },
        "redirectURL" : "",
        "headersSize" : 193,
        "bodySize" : 27,
        "comment" : ""
      },
      "cache" : { },
      "timings" : {
        "comment" : "",
        "connect" : 0,
        "send" : 0,
        "dns" : -1,
        "wait" : 0,
        "receive" : 0,
        "blocked" : -1,
        "ssl" : -1
      },
      "comment" : "",
      "_katalonRequestInformation" : {
        "name" : "0",
        "testObjectId" : "Object Repository/POST - Create Token",
        "harId" : "73af8d3a-b390-411a-9946-44a2b20a8812",
        "reportFolder" : null
      },
      "time" : 0
    } ],
    "comment" : ""
  }
}