{
  "log" : {
    "version" : "1.2",
    "pages" : [ ],
    "entries" : [ {
      "startedDateTime" : "2023-04-28T18:38:43.336Z",
      "request" : {
        "method" : "GET",
        "url" : "https://restful-booker.herokuapp.com/booking/3329",
        "httpVersion" : "",
        "cookies" : [ ],
        "headers" : [ {
          "name" : "Accept",
          "value" : "application/json"
        } ],
        "queryString" : [ ],
        "headersSize" : 0,
        "bodySize" : 0,
        "comment" : ""
      },
      "response" : {
        "status" : 404,
        "statusText" : "",
        "httpVersion" : "",
        "cookies" : [ ],
        "headers" : [ {
          "name" : "Server",
          "value" : "Cowboy"
        }, {
          "name" : "Etag",
          "value" : "W/\"9-0gXL1ngzMqISxa6S1zx3F4wtLyg\""
        }, {
          "name" : "Connection",
          "value" : "keep-alive"
        }, {
          "name" : "#status#",
          "value" : "HTTP/1.1 404 Not Found"
        }, {
          "name" : "Content-Length",
          "value" : "9"
        }, {
          "name" : "Date",
          "value" : "Fri, 28 Apr 2023 18:38:42 GMT"
        }, {
          "name" : "X-Powered-By",
          "value" : "Express"
        }, {
          "name" : "Content-Type",
          "value" : "text/plain; charset=utf-8"
        }, {
          "name" : "Via",
          "value" : "1.1 vegur"
        } ],
        "content" : {
          "size" : 9,
          "mimeType" : "text/plain; charset=utf-8",
          "text" : "Not Found",
          "comment" : ""
        },
        "redirectURL" : "",
        "headersSize" : 185,
        "bodySize" : 9,
        "comment" : ""
      },
      "cache" : { },
      "timings" : {
        "comment" : "",
        "dns" : -1,
        "blocked" : -1,
        "send" : 0,
        "wait" : 0,
        "receive" : 0,
        "connect" : 0,
        "ssl" : -1
      },
      "comment" : "",
      "_katalonRequestInformation" : {
        "name" : "0",
        "testObjectId" : "Object Repository/GET - GetBooking",
        "harId" : "b501a701-a737-4c21-bdb2-ac25a436f9b8",
        "reportFolder" : null
      },
      "time" : 0
    } ],
    "comment" : ""
  }
}